%YAML:1.0
name: "StatModel.EM"
covMatType: 1
covs:
   - !!opencv-matrix
      rows: 3
      cols: 3
      dt: d
      data: [ 8.7067776829673150e+01, 0., 0., 0., 9.0512090061172458e+01,
          0., 0., 0., 7.7312089393843863e+01 ]
   - !!opencv-matrix
      rows: 3
      cols: 3
      dt: d
      data: [ 4.9052833051717542e+01, 0., 0., 0., 1.1089545047339837e+02,
          0., 0., 0., 7.3589798140650359e+01 ]
   - !!opencv-matrix
      rows: 3
      cols: 3
      dt: d
      data: [ 4.4866231872283095e+01, 0., 0., 0., 4.6158099794901688e+01,
          0., 0., 0., 4.1652571685412356e+00 ]
   - !!opencv-matrix
      rows: 3
      cols: 3
      dt: d
      data: [ 4.5140941990038499e+01, 0., 0., 0., 5.3172798678526284e+01,
          0., 0., 0., 1.1419189125442145e+01 ]
   - !!opencv-matrix
      rows: 3
      cols: 3
      dt: d
      data: [ 6.1500767001970530e+02, 0., 0., 0., 2.0464887878076127e+02,
          0., 0., 0., 1.4123866383334058e+02 ]
   - !!opencv-matrix
      rows: 3
      cols: 3
      dt: d
      data: [ 2.6321954598479886e+02, 0., 0., 0., 5.4915185875414480e+01,
          0., 0., 0., 1.1640694549659795e+01 ]
   - !!opencv-matrix
      rows: 3
      cols: 3
      dt: d
      data: [ 1.5698983910704834e+01, 0., 0., 0., 3.0331306677178386e+01,
          0., 0., 0., 3.7021363202966145e-01 ]
   - !!opencv-matrix
      rows: 3
      cols: 3
      dt: d
      data: [ 1.2427488837395083e+02, 0., 0., 0., 2.1012919743343957e+02,
          0., 0., 0., 3.8625081029172435e+01 ]
   - !!opencv-matrix
      rows: 3
      cols: 3
      dt: d
      data: [ 1.0634615144972662e+02, 0., 0., 0., 1.1847310094526325e+02,
          0., 0., 0., 8.3601916259371066e+01 ]
   - !!opencv-matrix
      rows: 3
      cols: 3
      dt: d
      data: [ 1.9788428554943869e+02, 0., 0., 0., 5.1193041669895941e+01,
          0., 0., 0., 4.5638179923064783e+01 ]
   - !!opencv-matrix
      rows: 3
      cols: 3
      dt: d
      data: [ 1.2292027120029593e+02, 0., 0., 0., 8.8483249583977809e+01,
          0., 0., 0., 1.6104905264602326e+02 ]
   - !!opencv-matrix
      rows: 3
      cols: 3
      dt: d
      data: [ 5.3192824818263809e+01, 0., 0., 0., 7.2727077756580059e+01,
          0., 0., 0., 7.4264773843270149e+01 ]
   - !!opencv-matrix
      rows: 3
      cols: 3
      dt: d
      data: [ 1.4142864415114101e+02, 0., 0., 0., 5.0983573979184456e+01,
          0., 0., 0., 1.0351123812222495e+01 ]
   - !!opencv-matrix
      rows: 3
      cols: 3
      dt: d
      data: [ 2.4047943735061054e+02, 0., 0., 0., 1.9626670396208243e+02,
          0., 0., 0., 3.7132120394924959e+00 ]
   - !!opencv-matrix
      rows: 3
      cols: 3
      dt: d
      data: [ 9.5335645303290519e+01, 0., 0., 0., 4.8935578223167433e+01,
          0., 0., 0., 4.9115816977893246e+01 ]
   - !!opencv-matrix
      rows: 3
      cols: 3
      dt: d
      data: [ 2.6190579185332233e+01, 0., 0., 0., 3.2328799075959466e+01,
          0., 0., 0., 5.3064185698109212e-01 ]
   - !!opencv-matrix
      rows: 3
      cols: 3
      dt: d
      data: [ 1.1234376396209397e+02, 0., 0., 0., 9.8544942212594691e+01,
          0., 0., 0., 5.5469380674689447e+01 ]
   - !!opencv-matrix
      rows: 3
      cols: 3
      dt: d
      data: [ 3.2341238118379984e+01, 0., 0., 0., 3.3366294359165600e+01,
          0., 0., 0., 2.0020035173924779e+01 ]
   - !!opencv-matrix
      rows: 3
      cols: 3
      dt: d
      data: [ 1.7581346888261745e+01, 0., 0., 0., 2.7175023491920903e+01,
          0., 0., 0., 2.8356331993285409e+00 ]
   - !!opencv-matrix
      rows: 3
      cols: 3
      dt: d
      data: [ 3.0952221730756122e+01, 0., 0., 0., 3.8626926368939081e+01,
          0., 0., 0., 1.6966171042164906e+00 ]
   - !!opencv-matrix
      rows: 3
      cols: 3
      dt: d
      data: [ 2.0545101494154130e+02, 0., 0., 0., 2.7058839012687059e+01,
          0., 0., 0., 1.1528485912132238e+01 ]
   - !!opencv-matrix
      rows: 3
      cols: 3
      dt: d
      data: [ 3.4564867437272774e+01, 0., 0., 0., 1.2139062545581955e+02,
          0., 0., 0., 7.9490808293329067e+01 ]
   - !!opencv-matrix
      rows: 3
      cols: 3
      dt: d
      data: [ 6.8263974277442827e+01, 0., 0., 0., 5.5105284026729954e+01,
          0., 0., 0., 1.0161116292770063e+02 ]
   - !!opencv-matrix
      rows: 3
      cols: 3
      dt: d
      data: [ 1.7867028426168574e+02, 0., 0., 0., 1.2964960109588807e+02,
          0., 0., 0., 8.1458265867867269e+01 ]
   - !!opencv-matrix
      rows: 3
      cols: 3
      dt: d
      data: [ 1.0119899742065262e+02, 0., 0., 0., 1.4855907031901137e+02,
          0., 0., 0., 2.8642527858632175e+01 ]
epsilon: 1.0000000000000001e-01
maxIters: 300
means: !!opencv-matrix
   rows: 25
   cols: 3
   dt: d
   data: [ 4.4998927488798635e+01, 2.4391222768867671e+01,
       4.9862127457734701e+01, 1.1859721561322143e+01,
       8.5298256315563521e+01, 3.2537830506879324e+01,
       1.5011828861050416e+01, 4.9196805203139839e+01,
       9.9658791091711706e+01, 1.4369383161770417e+01,
       2.6346560556053330e+01, 9.9261400537082210e+01,
       6.7490651494326841e+01, 8.0068287556127686e+01,
       9.0338587147234023e+01, 6.3362450978298050e+01,
       1.0314658433249067e+01, 9.9163740617824487e+01,
       2.2624012479356757e+01, 8.8378235012005376e+01,
       9.9930372747228262e+01, 1.7440343753826170e+01,
       2.4616163829424274e+01, 2.2400776832937684e+01,
       6.5039726428036886e+01, 6.6433596226423191e+01,
       4.2029015916914382e+01, 5.6064919077119370e+01,
       1.0567861687910577e+01, 2.7832016391913733e+01,
       1.5186908349066677e+01, 1.2579816174344298e+01,
       4.5894733496639269e+01, 1.4945217524589905e+01,
       6.3561855832557633e+01, 4.4223705697196579e+01,
       3.5321260384311792e+01, 3.0888636605306058e+01,
       9.9143722195247634e+01, 7.1565853772525784e+01,
       4.3500409476062359e+01, 9.9619527843446420e+01,
       9.1096906325079630e+01, 9.3128157504279869e+01,
       4.0330575861520821e+01, 2.2474749222813998e+01,
       7.2205232909960245e+01, 9.9904162109940827e+01,
       7.7537584646787067e+01, 5.0892546603503867e+01,
       5.0219586145198022e+01, 1.2561505830828850e+01,
       8.9591526389571925e+01, 4.7621524065016942e+01,
       1.0891430649939940e+01, 6.7772033912188931e+01,
       9.9688346381261567e+01, 1.1696578685211296e+01,
       9.0835288527970889e+01, 9.9744439471669949e+01,
       1.5503284601887275e+01, 5.4187552583953140e+00,
       9.9260099562066685e+01, 1.2677290487311831e+01,
       8.2112334867235148e+01, 6.7640833787928585e+01,
       1.4451028183508733e+01, 4.0826478039753766e+01,
       4.9537792412362272e+01, 7.3195605703509216e+01,
       2.4216558578930808e+01, 5.0482422470991644e+01,
       6.3231603287908762e+01, 4.1926439991980530e+01,
       2.2780384360241460e+01 ]
nclusters: 25
weights: !!opencv-matrix
   rows: 1
   cols: 25
   dt: d
   data: [ 8.8811981669760773e-02, 4.4963588363627120e-02,
       7.1544979784768009e-02, 5.6809452763058634e-02,
       1.1202619451293446e-02, 6.0642582470100639e-02,
       4.9032088662801968e-02, 2.9073071712409405e-02,
       3.5803502087426449e-02, 3.5935622117396003e-02,
       2.9341038704214582e-02, 4.6369271647287942e-02,
       2.8122777882023810e-02, 2.8766283761085851e-02,
       1.6865991306763004e-02, 4.9838039750350761e-02,
       3.6697092182804557e-02, 3.1413481299784239e-02,
       3.2475935235615719e-02, 4.0114360597458258e-02,
       6.5946783412539317e-02, 2.3697523838339025e-02,
       3.0196250552242260e-02, 3.1542928903971444e-02,
       2.4792751841844332e-02 ]
