%YAML:1.0
name: "StatModel.EM"
covMatType: 1
covs:
   - !!opencv-matrix
      rows: 3
      cols: 3
      dt: d
      data: [ 1.2505579120718995e+01, 0., 0., 0., 1.5752036927859074e+01,
          0., 0., 0., 2.2204460492503131e-16 ]
   - !!opencv-matrix
      rows: 3
      cols: 3
      dt: d
      data: [ 1.3822590513906275e+02, 0., 0., 0., 3.5728380258015682e+02,
          0., 0., 0., 2.2204460492503131e-16 ]
   - !!opencv-matrix
      rows: 3
      cols: 3
      dt: d
      data: [ 3.7927015117876962e+01, 0., 0., 0., 4.0376511925570171e+01,
          0., 0., 0., 2.2204460492503131e-16 ]
   - !!opencv-matrix
      rows: 3
      cols: 3
      dt: d
      data: [ 4.5632739463062802e+02, 0., 0., 0., 2.3113061101470362e+02,
          0., 0., 0., 2.1407224131719433e-02 ]
   - !!opencv-matrix
      rows: 3
      cols: 3
      dt: d
      data: [ 4.1950415115529864e+02, 0., 0., 0., 5.1382655841467192e+02,
          0., 0., 0., 7.5325999916228398e+02 ]
   - !!opencv-matrix
      rows: 3
      cols: 3
      dt: d
      data: [ 1.5093521882373654e+01, 0., 0., 0., 2.4746912272950361e+01,
          0., 0., 0., 2.2204460492503131e-16 ]
   - !!opencv-matrix
      rows: 3
      cols: 3
      dt: d
      data: [ 4.9793484457029798e+01, 0., 0., 0., 2.4010818287932383e+02,
          0., 0., 0., 1.7313437876470939e+01 ]
   - !!opencv-matrix
      rows: 3
      cols: 3
      dt: d
      data: [ 5.2532273933909323e+02, 0., 0., 0., 1.5055599016326019e+02,
          0., 0., 0., 2.2204460492503131e-16 ]
epsilon: 1.0000000000000001e-01
maxIters: 300
means: !!opencv-matrix
   rows: 8
   cols: 3
   dt: d
   data: [ 1.7635707632390147e+01, 7.7038333913591330e+01,
       9.9999999999981739e+01, 2.1513162634427225e+01,
       5.3435193961730569e+01, 1.0000000000000118e+02,
       9.2361037606791839e+01, 9.1028300184843118e+01,
       9.9999999999987452e+01, 3.3660331152932692e+01,
       3.5522088867230288e+01, 9.7978113768750404e+01,
       2.6861234814565115e+01, 4.5024460870587077e+01,
       4.8991307847268061e+01, 1.6716175967404958e+01,
       8.7154886896181324e+01, 1.0000000000000226e+02,
       1.5981449899645598e+01, 3.8417498457255576e+01,
       6.4076434667305179e+01, 4.2821605854209004e+01,
       2.3056454910510446e+01, 9.9999999999994998e+01 ]
nclusters: 8
weights: !!opencv-matrix
   rows: 1
   cols: 8
   dt: d
   data: [ 5.1505656539683562e-03, 6.1294907541675725e-01,
       1.0342116749783139e-03, 3.1754933888839074e-03,
       4.9441825148310511e-02, 8.4487227790104522e-08,
       2.4986539037679292e-02, 3.0326220519222735e-01 ]
