%YAML:1.0
name: "StatModel.EM"
covMatType: 1
covs:
   - !!opencv-matrix
      rows: 3
      cols: 3
      dt: d
      data: [ 3.5551574834218840e+01, 0., 0., 0., 4.3047677177687646e+01,
          0., 0., 0., 4.2391621016487768e+00 ]
   - !!opencv-matrix
      rows: 3
      cols: 3
      dt: d
      data: [ 1.0705577575237923e+02, 0., 0., 0., 1.2554893231317310e+02,
          0., 0., 0., 1.2912247542309123e+02 ]
   - !!opencv-matrix
      rows: 3
      cols: 3
      dt: d
      data: [ 5.8610346375644802e+01, 0., 0., 0., 1.2102739187147155e+02,
          0., 0., 0., 8.1238244357412484e+01 ]
   - !!opencv-matrix
      rows: 3
      cols: 3
      dt: d
      data: [ 5.4165128297058281e+01, 0., 0., 0., 2.0708208765123747e+01,
          0., 0., 0., 4.4784751528602407e-01 ]
   - !!opencv-matrix
      rows: 3
      cols: 3
      dt: d
      data: [ 7.4168343278349013e+01, 0., 0., 0., 7.2722104763042196e+01,
          0., 0., 0., 3.0705825976133013e+01 ]
   - !!opencv-matrix
      rows: 3
      cols: 3
      dt: d
      data: [ 1.6055265539487115e+02, 0., 0., 0., 7.4892653361031989e+01,
          0., 0., 0., 2.3170671272411689e+00 ]
   - !!opencv-matrix
      rows: 3
      cols: 3
      dt: d
      data: [ 1.0175769964914470e+02, 0., 0., 0., 1.7265919256133901e+02,
          0., 0., 0., 1.3068830065381161e+02 ]
   - !!opencv-matrix
      rows: 3
      cols: 3
      dt: d
      data: [ 9.7929409629892788e+01, 0., 0., 0., 3.9348072397136505e+01,
          0., 0., 0., 1.3108742346156135e-01 ]
   - !!opencv-matrix
      rows: 3
      cols: 3
      dt: d
      data: [ 3.5610924900818155e+01, 0., 0., 0., 1.8191257140610354e+01,
          0., 0., 0., 2.1353221256432047e+01 ]
   - !!opencv-matrix
      rows: 3
      cols: 3
      dt: d
      data: [ 1.3515234433594819e+02, 0., 0., 0., 1.4344521620236804e+02,
          0., 0., 0., 1.7186248475676180e+02 ]
   - !!opencv-matrix
      rows: 3
      cols: 3
      dt: d
      data: [ 5.9009281760232554e+01, 0., 0., 0., 9.5877401347584780e+01,
          0., 0., 0., 1.0039396799212059e+02 ]
   - !!opencv-matrix
      rows: 3
      cols: 3
      dt: d
      data: [ 1.2102763068705340e+02, 0., 0., 0., 7.0656866019748676e+01,
          0., 0., 0., 9.1652571983354591e+01 ]
   - !!opencv-matrix
      rows: 3
      cols: 3
      dt: d
      data: [ 7.1351168240170381e+01, 0., 0., 0., 9.0150526417849548e+01,
          0., 0., 0., 9.8066673231900211e+01 ]
   - !!opencv-matrix
      rows: 3
      cols: 3
      dt: d
      data: [ 8.4273175171140764e+01, 0., 0., 0., 2.2297394331276617e+01,
          0., 0., 0., 5.0074621192242832e+00 ]
   - !!opencv-matrix
      rows: 3
      cols: 3
      dt: d
      data: [ 2.3821317146529549e+02, 0., 0., 0., 3.4003665111010969e+02,
          0., 0., 0., 1.4762664908180511e+01 ]
   - !!opencv-matrix
      rows: 3
      cols: 3
      dt: d
      data: [ 1.4416681415968600e+02, 0., 0., 0., 1.3509922865174309e+02,
          0., 0., 0., 1.2101781220251762e+02 ]
   - !!opencv-matrix
      rows: 3
      cols: 3
      dt: d
      data: [ 1.6378876511591474e+02, 0., 0., 0., 1.3195958762954038e+02,
          0., 0., 0., 1.2199092742768957e+02 ]
   - !!opencv-matrix
      rows: 3
      cols: 3
      dt: d
      data: [ 5.4931127180130034e+01, 0., 0., 0., 4.4863327959308428e+01,
          0., 0., 0., 2.2118766422744626e-01 ]
   - !!opencv-matrix
      rows: 3
      cols: 3
      dt: d
      data: [ 1.2005795491924165e+02, 0., 0., 0., 8.3848058703818936e+01,
          0., 0., 0., 3.9932668625934866e+01 ]
   - !!opencv-matrix
      rows: 3
      cols: 3
      dt: d
      data: [ 6.4299067759554958e+01, 0., 0., 0., 4.8100541823415192e+01,
          0., 0., 0., 1.7443378640848144e+00 ]
   - !!opencv-matrix
      rows: 3
      cols: 3
      dt: d
      data: [ 1.7413838427963407e+02, 0., 0., 0., 1.2528940959704281e+02,
          0., 0., 0., 8.0374601066755247e+01 ]
   - !!opencv-matrix
      rows: 3
      cols: 3
      dt: d
      data: [ 5.8865738961963096e+01, 0., 0., 0., 1.4400214299582765e+02,
          0., 0., 0., 1.1874478507882256e+02 ]
   - !!opencv-matrix
      rows: 3
      cols: 3
      dt: d
      data: [ 5.1351318188332620e+01, 0., 0., 0., 3.8990698185189707e+01,
          0., 0., 0., 5.4590956577742156e-01 ]
   - !!opencv-matrix
      rows: 3
      cols: 3
      dt: d
      data: [ 5.9293344362836493e+01, 0., 0., 0., 3.3956385730227339e+01,
          0., 0., 0., 2.1267582240553090e-01 ]
   - !!opencv-matrix
      rows: 3
      cols: 3
      dt: d
      data: [ 5.9540928720824652e+01, 0., 0., 0., 6.7844512978441145e+01,
          0., 0., 0., 2.6955883276789379e+01 ]
epsilon: 1.0000000000000001e-01
maxIters: 300
means: !!opencv-matrix
   rows: 25
   cols: 3
   dt: d
   data: [ 1.2874358822320659e+01, 4.8251538447542764e+01,
       9.9610885673850007e+01, 8.0507324154621472e+01,
       3.7786636808582557e+01, 4.8973317148486665e+01,
       1.6007175477400740e+01, 6.1908684298945474e+01,
       4.6071139396560682e+01, 1.4909997830588654e+01,
       7.4196972560317946e+01, 9.9915508782511765e+01,
       5.3712692335093685e+01, 1.2571626678290951e+01,
       2.4046033086804016e+01, 5.4312737672094734e+01,
       2.9123738861070045e+01, 9.9671383890752097e+01,
       1.4387543068781815e+01, 2.0530218220980643e+01,
       6.6771572405344557e+01, 2.7911776693052918e+01,
       9.4745787637373553e+00, 9.9966348818191605e+01,
       9.4941422718906324e+01, 9.5606479970580253e+01,
       3.9271271262779777e+01, 7.0725091749269424e+01,
       6.6800591848035864e+01, 4.1790677274890832e+01,
       1.2691925624287579e+01, 8.7365963020595188e+01,
       3.5236412105005087e+01, 5.9765872864562041e+01,
       4.6430885421671974e+01, 4.3432611587013497e+01,
       1.4450027132165857e+01, 4.1083818186166390e+01,
       3.6106315494909474e+01, 6.0372100304613213e+01,
       6.7286911727893335e+00, 9.9544426356705856e+01,
       7.7714552856219896e+01, 6.2051371823463398e+01,
       9.8736839696432881e+01, 1.7958336162586392e+01,
       1.5697416787920465e+01, 3.0248895322209005e+01,
       7.6230509152653951e+01, 1.4922481130965897e+01,
       3.0855774340288615e+01, 1.8547049300508931e+01,
       8.8978130238789362e+01, 9.9949967155418477e+01,
       4.8581472137338267e+01, 2.4655360946546566e+01,
       4.5386336677916098e+01, 8.2423578645679907e+00,
       7.4216217486933518e+00, 9.9779118088077126e+01,
       5.0707490770598163e+01, 1.8827848841162584e+01,
       6.3951300072015009e+01, 1.4470829869536630e+01,
       8.3245931040005544e+01, 7.3795884653775673e+01,
       1.9532505045529355e+01, 6.2468384924549277e+01,
       9.9908912326759619e+01, 1.6261279946675817e+01,
       3.0635344592372363e+01, 9.9952272162468887e+01,
       8.8107479846603511e+01, 1.0951945877977153e+01,
       9.8396497450858618e+01 ]
nclusters: 25
weights: !!opencv-matrix
   rows: 1
   cols: 25
   dt: d
   data: [ 6.0331435683965276e-02, 2.9975388249396752e-02,
       4.2567657686217251e-02, 4.5336453717548304e-02,
       2.3499121917914471e-02, 3.5481439769695457e-02,
       2.7953628724025195e-02, 4.5968288239813027e-02,
       1.1910018278677844e-02, 5.2740700575073289e-02,
       4.7691355176567356e-02, 2.5167905183095800e-02,
       2.8009532007654436e-02, 5.1006717907997365e-02,
       2.2193772048340114e-02, 4.3987233757467888e-02,
       1.4732968549330325e-02, 8.8456681427771217e-02,
       7.4193949787516034e-02, 5.9569843936490494e-02,
       2.2932643595450209e-02, 1.6969098072983416e-02,
       4.9497464345894977e-02, 6.0685202520248428e-02,
       1.9141498840374919e-02 ]
